<svg width="9" height="7" viewBox="0 0 9 7" fill="none" xmlns="http://www.w3.org/2000/svg">
<path d="M0.103846 3.84602C0.0346154 3.77679 0 3.67295 0 3.60371C0 3.53448 0.0346154 3.43064 0.103846 3.36141L0.588462 2.87679C0.726923 2.73833 0.934615 2.73833 1.07308 2.87679L1.10769 2.91141L3.01154 4.95371C3.08077 5.02295 3.18462 5.02295 3.25385 4.95371L7.89231 0.142176H7.92692C8.06538 0.0037147 8.27308 0.0037147 8.41154 0.142176L8.89615 0.626792C9.03462 0.765253 9.03462 0.972945 8.89615 1.11141L3.35769 6.85756C3.28846 6.92679 3.21923 6.96141 3.11538 6.96141C3.01154 6.96141 2.94231 6.92679 2.87308 6.85756L0.173077 3.94987L0.103846 3.84602Z" fill="white"/>
</svg>
