<svg width="71" height="63" viewBox="0 0 71 63" fill="none" xmlns="http://www.w3.org/2000/svg">
<g clip-path="url(#clip0)">
<path d="M70.3044 21.2424L56.24 12.2412C56.1302 12.1822 56.0134 12.1372 55.8922 12.1073V9.0033C55.8922 8.606 55.7333 8.22496 55.4504 7.94402C55.1674 7.66309 54.7837 7.50526 54.3836 7.50526H48.7753L37.0543 0.230879C36.8144 0.0819188 36.5372 0.00292969 36.2543 0.00292969C35.9714 0.00292969 35.6942 0.0819188 35.4544 0.230879L23.7159 7.50094H16.6164C16.2163 7.50094 15.8326 7.65877 15.5496 7.93971C15.2667 8.22064 15.1078 8.60168 15.1078 8.99899V12.0901C14.9865 12.1197 14.8696 12.1647 14.76 12.2239L0.691268 21.2424C0.479272 21.3785 0.304962 21.5652 0.184223 21.7854C0.0634833 22.0056 0.000154076 22.2523 6.26506e-06 22.503V61.504C-0.00056572 61.7011 0.0380334 61.8964 0.113592 62.0786C0.18915 62.2609 0.300182 62.4265 0.440326 62.5661C0.58047 62.7056 0.74697 62.8164 0.930286 62.8919C1.1136 62.9675 1.31013 63.0064 1.50861 63.0064H69.487C69.6859 63.007 69.8829 62.9685 70.0667 62.8932C70.2505 62.8179 70.4175 62.7072 70.5581 62.5676C70.6987 62.428 70.8102 62.2622 70.886 62.0796C70.9618 61.8971 71.0006 61.7015 71 61.504V22.503C70.9994 22.2519 70.9354 22.0049 70.8139 21.7847C70.6924 21.5645 70.5172 21.378 70.3044 21.2424ZM36.2543 3.27014L43.0713 7.50094H29.4373L36.2543 3.27014ZM18.1293 10.5013H52.875V44.2527L47.7666 47.3352L35.4674 40.6868C35.2421 40.562 34.9884 40.4965 34.7305 40.4965C34.4725 40.4965 34.2189 40.562 33.9936 40.6868L22.7725 47.0589L18.125 44.257L18.1293 10.5013ZM3.0433 23.3146L15.1078 15.5869V42.4438L3.0433 35.1608V23.3146ZM3.0433 38.6664L19.7771 48.7857L3.0433 58.2834V38.6664ZM6.08659 60.0103L34.7805 43.7304L64.8221 60.0103H6.08659ZM67.9958 58.2834L50.8491 48.9973L67.9958 38.6577V58.2834ZM67.9958 35.1479L55.9096 42.4352V15.5869L67.9784 23.3146L67.9958 35.1479Z" fill="#E5E5EB"/>
<path d="M24.1683 25.5012H42.2976C42.6977 25.5012 43.0814 25.3434 43.3644 25.0625C43.6473 24.7815 43.8062 24.4005 43.8062 24.0032V15.002C43.8062 14.6046 43.6473 14.2236 43.3644 13.9427C43.0814 13.6617 42.6977 13.5039 42.2976 13.5039H24.1683C23.7682 13.5039 23.3845 13.6617 23.1015 13.9427C22.8186 14.2236 22.6597 14.6046 22.6597 15.002V23.9989C22.6591 24.196 22.6977 24.3912 22.7733 24.5735C22.8488 24.7557 22.9599 24.9214 23.1 25.0609C23.2401 25.2005 23.4066 25.3112 23.59 25.3868C23.7733 25.4623 23.9698 25.5012 24.1683 25.5012ZM25.6769 16.5H40.7847V22.5008H25.6812L25.6769 16.5Z" fill="#E5E5EB"/>
<path d="M46.8277 28.5015H22.6597V31.5019H46.8277V28.5015Z" fill="#E5E5EB"/>
<path d="M46.8277 34.5024H22.6597V37.5029H46.8277V34.5024Z" fill="#E5E5EB"/>
</g>
<defs>
<clipPath id="clip0">
<rect width="71" height="63" fill="white"/>
</clipPath>
</defs>
</svg>
